General 02: Getting Started with Statistical Analysis for Pathologists • ClinicoPath
…
Missing Value Analysis

Check for missing values and data completeness:

# Check data completeness
missing_summary <- histopathology %>%
  summarise_all(~sum(is.na(.))) %>%
  gather(variable, missing_count) %>%
  mutate(missing_percent = round(missing_count / nrow(histopathology) * 100, 1)) %>%
  filter(missing_count > 0) %>%
  arrange(desc(missing_count))

print(missing_summary)
#> # A tibble: 23 × 3
#>    variable             missing_count missing_percent
#>    <chr>                        <int>           <dbl>
#>  1 OverallTime                      2             0.8
#>  2 Name                             1             0.4
#>  3 Sex                              1             0.4
#>  4 Age                              1             0.4
#>  5 Race                             1             0.4
#>  6 PreinvasiveComponent             1             0.4
#>  7 LVI                              1             0.4
#>  8 PNI                              1             0.4
#>  9 LastFollowUpDate                 1             0.4
#> 10 Death                            1             0.4
#> # ℹ 13 more rows
…
