Use ClinicoPathDescriptives in R • ClinicoPath
…
age_pyramid$plot$state
#> # A tibble: 21 × 3
#>    Gender Pop         n
#>    <chr>  <ord>   <int>
#>  1 Female (20,25]     1
#>  2 Female (25,30]    10
#>  3 Female (30,35]     6
#>  4 Female (35,40]    13
#>  5 Female (40,45]    19
#>  6 Female (45,50]     8
#>  7 Female (50,55]     8
#>  8 Female (55,60]    14
#>  9 Female (60,65]    16
#> 10 Female (65,70]    17
#> # ℹ 11 more rows
…
