Precision Oncology Dataset — precision_oncology • ClinicoPath
…
# Targeted therapy selection workflow
subset(precision_oncology, HER2_FISH_Status == "Amplified")
#> # A tibble: 21 × 16
#>    Patient_ID   Age Gender Tumor_Type          Grade EGFR_Mutation KRAS_Mutation
#>    <chr>      <dbl> <chr>  <chr>               <int> <chr>         <chr>        
#>  1 MP0004        60 Female Colorectal_Adenoca…     2 Negative      Negative     
#>  2 MP0012        87 Male   Breast_Invasive_Du…     2 Negative      Negative     
#>  3 MP0051        59 Male   Colorectal_Adenoca…     2 Negative      Negative     
#>  4 MP0055        57 Male   Melanoma                2 Negative      Negative     
#>  5 MP0068        84 Male   Melanoma                2 Negative      Negative     
#>  6 MP0073        52 Male   Melanoma                1 Negative      Negative     
#>  7 MP0097        59 Female Lung_Adenocarcinoma     2 Negative      Negative     
#>  8 MP0105        67 Female Colorectal_Adenoca…     2 Negative      Negative     
#>  9 MP0118        73 Female Breast_Invasive_Du…     2 Negative      Negative     
#> 10 MP0173        65 Male   Colorectal_Adenoca…     2 Negative      Negative     
#> # ℹ 11 more rows
#> # ℹ 9 more variables: BRAF_Mutation <chr>, ALK_Fusion <chr>, HER2_IHC <chr>,
#> #   HER2_FISH_Status <chr>, PD_L1_TPS <dbl>, MSI_Status <chr>,
#> #   Treatment_Response <chr>, PFS_Months <dbl>, Progression_Event <int>
…
